[
{
  "model": "main.purchaseorder",
  "pk": 2,
  "fields": {
    "create_date": "2018-11-29",
    "detail": "Video Editing + PWTs",
    "cost": "50000.00",
    "recognized": "50000.00",
    "company": 1,
    "po_group": 1
  }
}
]
